{"content":[{"id":149938,"applicant":{"fullName":"Алексей Карчевский","userName":"master","email":"a.karchevski@pflb.ru","location":"142784, г.Москва, Киевское шоссе, 22-й км,\nБП ComCity, домовл.6, стр.1","phone":"8 (000) 123-45-67","mobilePhone":"8 (000) 123-45-67","id":106},"director":{"fullName":"Васильев Павел1","userName":"director_1","email":"director@mail.com","location":"location","address":"152 Скотопрогонная ул. 13","phone":"+79778334486","mobilePhone":"8 (000) 123-45-67","workPhone":"+79778334486","organization":"organization","id":101122},"header":"Cломаны петли, просела правая сторона ворот, деформирована левая сторона ворот","text":"MX request","createDate":1575452891567,"lastEditDate":1575452891580,"ticketState":"Новый","ticketStateId":-1,"serviceId":2862,"syncMask":"PORTAL_ONLY","location":"152 Скотопрогонная ул. 13","address":"152 Скотопрогонная ул. 13","categories":["Инженерия","Части здания","Распашные ворота деборкадера"],"category1":"Инженерия","category2":"Части здания","category3":"Распашные ворота деборкадера","openCommunications":0,"totalCommunications":0,"actions":[]},{"id":149937,"applicant":{"fullName":"Алексей Карчевский","userName":"master","email":"a.karchevski@pflb.ru","location":"142784, г.Москва, Киевское шоссе, 22-й км,\nБП ComCity, домовл.6, стр.1","phone":"8 (000) 123-45-67","mobilePhone":"8 (000) 123-45-67","id":106},"header":"Треск и искрение в светильниках в рабочем режиме","text":"MX request","createDate":1575452884633,"lastEditDate":1575452884637,"ticketState":"Новый","ticketStateId":-1,"serviceId":2839,"inventoryNumber":"000009","inventoryId":9,"syncMask":"PORTAL_ONLY","location":"Изумрудная 14","address":"Изумрудная 14","categories":["Инженерия","Электрооборудование","Наружнее освещение фасада и прилегающей территории"],"category1":"Инженерия","category2":"Электрооборудование","category3":"Наружнее освещение фасада и прилегающей территории","openCommunications":0,"totalCommunications":0,"actions":[]},{"id":149934,"applicant":{"fullName":"Алексей Карчевский","userName":"master","email":"a.karchevski@pflb.ru","location":"142784, г.Москва, Киевское шоссе, 22-й км,\nБП ComCity, домовл.6, стр.1","phone":"8 (000) 123-45-67","mobilePhone":"8 (000) 123-45-67","id":106},"contractor":{"id":9,"name":"2-Ремонт","organization":"Холодильное оборудование","company":"YYY","active":true},"header":"Не включается при нажатии кнопки запуска","text":"DTelekhin test description test description test description test description","createDate":1575452732643,"lastEditDate":1575452732647,"ticketState":"Выполняется","ticketStateId":1,"serviceId":2843,"syncMask":"PORTAL_ONLY","location":"default location","address":"default location","taskId":149934,"taskState":"Выполняется","taskStateId":1,"categories":["Инженерия","Электрооборудование","Обеспечение электроэнергией от  генераторов"],"category1":"Инженерия","category2":"Электрооборудование","category3":"Обеспечение электроэнергией от  генераторов","canBeCanceled":true,"openCommunications":0,"totalCommunications":0,"actions":["assignContractor","solveTicket","cancelTicket","cancelTask","inventoryNumberChange","slaDateChange","specialistDateChange","comment"]},{"id":149932,"applicant":{"fullName":"Алексей Карчевский","userName":"master","email":"a.karchevski@pflb.ru","location":"142784, г.Москва, Киевское шоссе, 22-й км,\nБП ComCity, домовл.6, стр.1","phone":"8 (000) 123-45-67","mobilePhone":"8 (000) 123-45-67","id":106},"contractor":{"id":9,"name":"2-Ремонт","organization":"Холодильное оборудование","company":"YYY","active":true},"header":"В холодильнике разбито/сломано","text":"DTelekhin test description test description test description test description","createDate":1575452715248,"lastEditDate":1575452715252,"ticketState":"Выполняется","ticketStateId":1,"serviceId":2980,"syncMask":"PORTAL_ONLY","location":"Изумрудная 14","address":"Изумрудная 14","taskId":149932,"taskState":"Выполняется","taskStateId":1,"categories":["Технологическое оборудование","Холодильное оборудование","Холодильный Шкаф на Складе"],"category1":"Технологическое оборудование","category2":"Холодильное оборудование","category3":"Холодильный Шкаф на Складе","canBeCanceled":true,"openCommunications":0,"totalCommunications":0,"actions":["assignContractor","solveTicket","cancelTicket","cancelTask","inventoryNumberChange","slaDateChange","specialistDateChange","comment"]},{"id":149931,"applicant":{"fullName":"Алексей Карчевский","userName":"master","email":"a.karchevski@pflb.ru","location":"142784, г.Москва, Киевское шоссе, 22-й км,\nБП ComCity, домовл.6, стр.1","phone":"8 (000) 123-45-67","mobilePhone":"8 (000) 123-45-67","id":106},"contractor":{"id":9,"name":"2-Ремонт","organization":"Холодильное оборудование","company":"YYY","active":true},"header":"Сломана защита сканера","text":"DTelekhin test description test description test description test description test description","createDate":1575452706390,"lastEditDate":1575452706395,"ticketState":"Выполняется","ticketStateId":1,"serviceId":2882,"syncMask":"PORTAL_ONLY","location":"Барклая 24","address":"Барклая 24","taskId":149931,"taskState":"Выполняется","taskStateId":1,"categories":["Технологическое оборудование","Кассовый стол и гидаж","Кассовый стол (педаль, лента транспортера)"],"category1":"Технологическое оборудование","category2":"Кассовый стол и гидаж","category3":"Кассовый стол (педаль, лента транспортера)","canBeCanceled":true,"openCommunications":0,"totalCommunications":0,"actions":["assignContractor","solveTicket","cancelTicket","cancelTask","inventoryNumberChange","slaDateChange","specialistDateChange","comment"]},{"id":149930,"applicant":{"fullName":"Алексей Карчевский","userName":"master","email":"a.karchevski@pflb.ru","location":"142784, г.Москва, Киевское шоссе, 22-й км,\nБП ComCity, домовл.6, стр.1","phone":"8 (000) 123-45-67","mobilePhone":"8 (000) 123-45-67","id":106},"contractor":{"id":9,"name":"2-Ремонт","organization":"Холодильное оборудование","company":"YYY","active":true},"header":"Не включается при нажатии кнопки запуска","text":"DTelekhin test description test description test description","createDate":1575452696225,"lastEditDate":1575452696232,"ticketState":"Выполняется","ticketStateId":1,"serviceId":2840,"syncMask":"PORTAL_ONLY","location":"Барклая 24","address":"Барклая 24","taskId":149930,"taskState":"Выполняется","taskStateId":1,"categories":["Инженерия","Электрооборудование","Обеспечение электроэнергией от  генераторов"],"category1":"Инженерия","category2":"Электрооборудование","category3":"Обеспечение электроэнергией от  генераторов","canBeCanceled":true,"openCommunications":0,"totalCommunications":0,"actions":["assignContractor","solveTicket","cancelTicket","cancelTask","inventoryNumberChange","slaDateChange","specialistDateChange","comment"]},{"id":149929,"applicant":{"fullName":"Алексей Карчевский","userName":"master","email":"a.karchevski@pflb.ru","location":"142784, г.Москва, Киевское шоссе, 22-й км,\nБП ComCity, домовл.6, стр.1","phone":"8 (000) 123-45-67","mobilePhone":"8 (000) 123-45-67","id":106},"director":{"fullName":"Васильев Павел1","userName":"director_1","email":"director@mail.com","location":"location","address":"152 Скотопрогонная ул. 13","phone":"+79778334486","mobilePhone":"8 (000) 123-45-67","workPhone":"+79778334486","organization":"organization","id":101122},"header":"Невозможно закрыть, постоянная течь воды","text":"Agalarov.A.{UC01_Create_task_02_randNumber}","createDate":1575452675183,"lastEditDate":1575452675188,"ticketState":"Новый","ticketStateId":-1,"serviceId":2847,"syncMask":"PORTAL_ONLY","location":"152 Скотопрогонная ул. 13","address":"152 Скотопрогонная ул. 13","categories":["Инженерия","Сантехника","Раковина, Унитаз, Мойка"],"category1":"Инженерия","category2":"Сантехника","category3":"Раковина, Унитаз, Мойка","openCommunications":0,"totalCommunications":0,"actions":[]},{"id":149928,"applicant":{"fullName":"Алексей Карчевский","userName":"master","email":"a.karchevski@pflb.ru","location":"142784, г.Москва, Киевское шоссе, 22-й км,\nБП ComCity, домовл.6, стр.1","phone":"8 (000) 123-45-67","mobilePhone":"8 (000) 123-45-67","id":106},"director":{"fullName":"Васильев Павел1","userName":"director_1","email":"director@mail.com","location":"location","address":"152 Скотопрогонная ул. 13","phone":"+79778334486","mobilePhone":"8 (000) 123-45-67","workPhone":"+79778334486","organization":"organization","id":101122},"header":"Двери медленно движутся","text":"{pMessage}","createDate":1575452653185,"lastEditDate":1575452653188,"ticketState":"Новый","ticketStateId":-1,"serviceId":2948,"syncMask":"PORTAL_ONLY","location":"152 Скотопрогонная ул. 13","address":"152 Скотопрогонная ул. 13","categories":["Технологическое оборудование","Автоматические  ворота и двери","Автоматические двери на входе"],"category1":"Технологическое оборудование","category2":"Автоматические  ворота и двери","category3":"Автоматические двери на входе","openCommunications":0,"totalCommunications":0,"actions":[]},{"id":149927,"applicant":{"fullName":"Алексей Карчевский","userName":"master","email":"a.karchevski@pflb.ru","location":"142784, г.Москва, Киевское шоссе, 22-й км,\nБП ComCity, домовл.6, стр.1","phone":"8 (000) 123-45-67","mobilePhone":"8 (000) 123-45-67","id":106},"header":"Сломана кнопка подъёмника","text":"{pMessage}","createDate":1575452647332,"lastEditDate":1575452647337,"ticketState":"Новый","ticketStateId":-1,"serviceId":2928,"inventoryNumber":"000009","inventoryId":9,"syncMask":"PORTAL_ONLY","location":"Изумрудная 14","address":"Изумрудная 14","categories":["Технологическое оборудование","Подъемные и передвижные механизмы","Грузовой подъёмник"],"category1":"Технологическое оборудование","category2":"Подъемные и передвижные механизмы","category3":"Грузовой подъёмник","openCommunications":0,"totalCommunications":0,"actions":[]},{"id":149926,"applicant":{"fullName":"Алексей Карчевский","userName":"master","email":"a.karchevski@pflb.ru","location":"142784, г.Москва, Киевское шоссе, 22-й км,\nБП ComCity, домовл.6, стр.1","phone":"8 (000) 123-45-67","mobilePhone":"8 (000) 123-45-67","id":106},"header":"На ЦХМ горит красная лампа","text":"Ogdanets text 1","createDate":1575452617767,"lastEditDate":1575452617771,"ticketState":"Новый","ticketStateId":-1,"serviceId":2953,"syncMask":"PORTAL_ONLY","location":"default location","address":"default location","categories":["Технологическое оборудование","Холодильное оборудование","Центральная холодильная машина, конденсатор"],"category1":"Технологическое оборудование","category2":"Холодильное оборудование","category3":"Центральная холодильная машина, конденсатор","openCommunications":0,"totalCommunications":0,"actions":[]}],"last":false,"totalElements":450,"totalPages":45,"size":10,"number":0,"sort":[{"direction":"DESC","property":"id","ignoreCase":false,"nullHandling":"NATIVE","ascending":false,"descending":true}],"numberOfElements":10,"first":true}