{"content":[{"id":149611,"applicant":{"fullName":"Алексей Карчевский","userName":"master","email":"a.karchevski@pflb.ru","location":"142784, г.Москва, Киевское шоссе, 22-й км,\nБП ComCity, домовл.6, стр.1","phone":"8 (000) 123-45-67","mobilePhone":"8 (000) 123-45-67","id":106},"header":"Не крутится транспортёрная лента","text":"Agalarov.A.1794750201","createDate":1574945184941,"lastEditDate":1574945184946,"ticketState":"Новый","ticketStateId":-1,"serviceId":2813,"inventoryNumber":"000010","inventoryId":10,"syncMask":"PORTAL_ONLY","files":[{"id":4387,"name":"test_text_file.txt"}],"location":"Изумрудная 14","address":"Изумрудная 14","categories":["Экология","Вторсырье","Нарушение графика вывоза вторсырья"],"category1":"Экология","category2":"Вторсырье","category3":"Нарушение графика вывоза вторсырья","hasAttachments":true,"openCommunications":0,"totalCommunications":0,"actions":[]},{"id":149610,"applicant":{"fullName":"Алексей Карчевский","userName":"master","email":"a.karchevski@pflb.ru","location":"142784, г.Москва, Киевское шоссе, 22-й км,\nБП ComCity, домовл.6, стр.1","phone":"8 (000) 123-45-67","mobilePhone":"8 (000) 123-45-67","id":106},"director":{"fullName":"Васильев Павел1","userName":"director_1","email":"director@mail.com","location":"location","address":"152 Скотопрогонная ул. 13","phone":"+79778334486","mobilePhone":"8 (000) 123-45-67","workPhone":"+79778334486","organization":"organization","id":101122},"header":"Не крутится транспортёрная лента","text":"Agalarov.A.1706728979","createDate":1574945178445,"lastEditDate":1574945178451,"ticketState":"Новый","ticketStateId":-1,"serviceId":2946,"syncMask":"PORTAL_ONLY","location":"152 Скотопрогонная ул. 13","address":"152 Скотопрогонная ул. 13","categories":["Технологическое оборудование","Автоматические  ворота и двери","Рольставни"],"category1":"Технологическое оборудование","category2":"Автоматические  ворота и двери","category3":"Рольставни","openCommunications":0,"totalCommunications":0,"actions":[]},{"id":149609,"applicant":{"fullName":"Алексей Карчевский","userName":"master","email":"a.karchevski@pflb.ru","location":"142784, г.Москва, Киевское шоссе, 22-й км,\nБП ComCity, домовл.6, стр.1","phone":"8 (000) 123-45-67","mobilePhone":"8 (000) 123-45-67","id":106},"header":"Не крутится транспортёрная лента","text":"Agalarov.A.1958439907","createDate":1574945171468,"lastEditDate":1574945171473,"ticketState":"Новый","ticketStateId":-1,"serviceId":2932,"inventoryNumber":"000009","inventoryId":9,"syncMask":"PORTAL_ONLY","location":"Изумрудная 14","address":"Изумрудная 14","categories":["Технологическое оборудование","Климатическое оборудование","Кондиционер"],"category1":"Технологическое оборудование","category2":"Климатическое оборудование","category3":"Кондиционер","openCommunications":0,"totalCommunications":0,"actions":[]},{"id":149608,"applicant":{"fullName":"Алексей Карчевский","userName":"master","email":"a.karchevski@pflb.ru","location":"142784, г.Москва, Киевское шоссе, 22-й км,\nБП ComCity, домовл.6, стр.1","phone":"8 (000) 123-45-67","mobilePhone":"8 (000) 123-45-67","id":106},"header":"Не крутится транспортёрная лента","text":"Agalarov.A.1836619975","createDate":1574945165001,"lastEditDate":1574945165006,"ticketState":"Новый","ticketStateId":-1,"serviceId":2974,"inventoryNumber":"000007","inventoryId":7,"syncMask":"PORTAL_ONLY","location":"Барклая 24","address":"Барклая 24","categories":["Технологическое оборудование","Холодильное оборудование","Холодильная пристенная горка"],"category1":"Технологическое оборудование","category2":"Холодильное оборудование","category3":"Холодильная пристенная горка","openCommunications":0,"totalCommunications":0,"actions":[]},{"id":149607,"applicant":{"fullName":"Алексей Карчевский","userName":"master","email":"a.karchevski@pflb.ru","location":"142784, г.Москва, Киевское шоссе, 22-й км,\nБП ComCity, домовл.6, стр.1","phone":"8 (000) 123-45-67","mobilePhone":"8 (000) 123-45-67","id":106},"header":"Не крутится транспортёрная лента","text":"Agalarov.A.1571811706","createDate":1574945159407,"lastEditDate":1574945159412,"ticketState":"Новый","ticketStateId":-1,"serviceId":2832,"inventoryNumber":"000008","inventoryId":8,"syncMask":"PORTAL_ONLY","location":"Барклая 24","address":"Барклая 24","categories":["Инженерия","Электрооборудование","Электрощитовая"],"category1":"Инженерия","category2":"Электрооборудование","category3":"Электрощитовая","openCommunications":0,"totalCommunications":0,"actions":[]},{"id":149606,"applicant":{"fullName":"Алексей Карчевский","userName":"master","email":"a.karchevski@pflb.ru","location":"142784, г.Москва, Киевское шоссе, 22-й км,\nБП ComCity, домовл.6, стр.1","phone":"8 (000) 123-45-67","mobilePhone":"8 (000) 123-45-67","id":106},"header":"В холодильнике разбито/сломано","text":"comment 3 (alex)","createDate":1574945080550,"lastEditDate":1574945080555,"ticketState":"Новый","ticketStateId":-1,"serviceId":2984,"syncMask":"PORTAL_ONLY","files":[{"id":4955,"name":"C:\\Users\\student\\Documents\\XDesk LR\\learning2\\UC01_task_create\\..\\XDesk_task_details\\task_detail_3.txt"}],"location":"default location","address":"default location","categories":["Технологическое оборудование","Холодильное оборудование","Холодильный Шкаф на Складе"],"category1":"Технологическое оборудование","category2":"Холодильное оборудование","category3":"Холодильный Шкаф на Складе","hasAttachments":true,"openCommunications":0,"totalCommunications":0,"actions":[]},{"id":149605,"applicant":{"fullName":"Алексей Карчевский","userName":"master","email":"a.karchevski@pflb.ru","location":"142784, г.Москва, Киевское шоссе, 22-й км,\nБП ComCity, домовл.6, стр.1","phone":"8 (000) 123-45-67","mobilePhone":"8 (000) 123-45-67","id":106},"header":"Сломана защита сканера","text":"Some text 3","createDate":1574944902691,"lastEditDate":1574944902696,"ticketState":"Новый","ticketStateId":-1,"serviceId":2884,"syncMask":"PORTAL_ONLY","files":[{"id":4954,"name":"C:\\Users\\student\\Desktop\\Ogdanets\\Project\\UC01_task_create\\File1.txt"}],"location":"default location","address":"default location","categories":["Технологическое оборудование","Кассовый стол и гидаж","Кассовый стол (педаль, лента транспортера)"],"category1":"Технологическое оборудование","category2":"Кассовый стол и гидаж","category3":"Кассовый стол (педаль, лента транспортера)","hasAttachments":true,"openCommunications":0,"totalCommunications":0,"actions":[]},{"id":149604,"applicant":{"fullName":"Алексей Карчевский","userName":"master","email":"a.karchevski@pflb.ru","location":"142784, г.Москва, Киевское шоссе, 22-й км,\nБП ComCity, домовл.6, стр.1","phone":"8 (000) 123-45-67","mobilePhone":"8 (000) 123-45-67","id":106},"header":"Не работает холодильный шкаф (указать, какую температуру показывает)","text":"Some text 2","createDate":1574944890735,"lastEditDate":1574944890743,"ticketState":"Новый","ticketStateId":-1,"serviceId":2962,"syncMask":"PORTAL_ONLY","files":[{"id":4953,"name":"C:\\Users\\student\\Desktop\\Ogdanets\\Project\\UC01_task_create\\File1.txt"}],"location":"default location","address":"default location","categories":["Технологическое оборудование","Холодильное оборудование","Холодильная камера"],"category1":"Технологическое оборудование","category2":"Холодильное оборудование","category3":"Холодильная камера","hasAttachments":true,"openCommunications":0,"totalCommunications":0,"actions":[]},{"id":149603,"applicant":{"fullName":"Алексей Карчевский","userName":"master","email":"a.karchevski@pflb.ru","location":"142784, г.Москва, Киевское шоссе, 22-й км,\nБП ComCity, домовл.6, стр.1","phone":"8 (000) 123-45-67","mobilePhone":"8 (000) 123-45-67","id":106},"header":"В камере течет вода","text":"MX request","createDate":1574944670039,"lastEditDate":1574944670044,"ticketState":"Выполняется","ticketStateId":1,"serviceId":2959,"inventoryNumber":"000008","inventoryId":8,"viewed":true,"syncMask":"PORTAL_ONLY","location":"Барклая 24","address":"Барклая 24","taskId":149603,"taskState":"Решена","taskStateId":2,"categories":["Технологическое оборудование","Холодильное оборудование","Холодильная камера"],"category1":"Технологическое оборудование","category2":"Холодильное оборудование","category3":"Холодильная камера","canBeCanceled":true,"openCommunications":0,"totalCommunications":0,"actions":["solveTicket","cancelTicket","inventoryNumberChange","slaDateChange","comment"]},{"id":149602,"applicant":{"fullName":"Алексей Карчевский","userName":"master","email":"a.karchevski@pflb.ru","location":"142784, г.Москва, Киевское шоссе, 22-й км,\nБП ComCity, домовл.6, стр.1","phone":"8 (000) 123-45-67","mobilePhone":"8 (000) 123-45-67","id":106},"header":"От двери отваливаются детали","text":"Some text 5","createDate":1574941571493,"lastEditDate":1574941571498,"ticketState":"Выполняется","ticketStateId":1,"serviceId":2941,"syncMask":"PORTAL_ONLY","files":[{"id":4952,"name":"C:\\Users\\student\\Desktop\\Ogdanets\\Project\\UC01_task_create\\File1.txt"}],"location":"Изумрудная 14","address":"Изумрудная 14","taskId":149602,"taskState":"Решена","taskStateId":2,"categories":["Технологическое оборудование","Автоматические  ворота и двери","Секционые ворота"],"category1":"Технологическое оборудование","category2":"Автоматические  ворота и двери","category3":"Секционые ворота","canBeCanceled":false,"hasAttachments":true,"openCommunications":0,"totalCommunications":0,"actions":["solveTicket","cancelTicket","inventoryNumberChange","slaDateChange","comment"]}],"last":false,"totalElements":402,"totalPages":41,"size":10,"number":0,"sort":[{"direction":"DESC","property":"id","ignoreCase":false,"nullHandling":"NATIVE","ascending":false,"descending":true}],"numberOfElements":10,"first":true}