{"content":[{"id":149859,"applicant":{"fullName":"Алексей Карчевский","userName":"master","email":"a.karchevski@pflb.ru","location":"142784, г.Москва, Киевское шоссе, 22-й км,\nБП ComCity, домовл.6, стр.1","phone":"8 (000) 123-45-67","mobilePhone":"8 (000) 123-45-67","id":106},"director":{"fullName":"Васильев Павел1","userName":"director_1","email":"director@mail.com","location":"location","address":"152 Скотопрогонная ул. 13","phone":"+79778334486","mobilePhone":"8 (000) 123-45-67","workPhone":"+79778334486","organization":"organization","id":101122},"header":"Двери медленно движутся","text":"DTelekhin test description test description test description","createDate":1575285546072,"lastEditDate":1575285546077,"ticketState":"Новый","ticketStateId":-1,"serviceId":2944,"syncMask":"PORTAL_ONLY","location":"152 Скотопрогонная ул. 13","address":"152 Скотопрогонная ул. 13","categories":["Технологическое оборудование","Автоматические  ворота и двери","Автоматические двери на входе"],"category1":"Технологическое оборудование","category2":"Автоматические  ворота и двери","category3":"Автоматические двери на входе","openCommunications":0,"totalCommunications":0,"actions":[]},{"id":149858,"applicant":{"fullName":"Алексей Карчевский","userName":"master","email":"a.karchevski@pflb.ru","location":"142784, г.Москва, Киевское шоссе, 22-й км,\nБП ComCity, домовл.6, стр.1","phone":"8 (000) 123-45-67","mobilePhone":"8 (000) 123-45-67","id":106},"director":{"fullName":"Васильев Павел1","userName":"director_1","email":"director@mail.com","location":"location","address":"152 Скотопрогонная ул. 13","phone":"+79778334486","mobilePhone":"8 (000) 123-45-67","workPhone":"+79778334486","organization":"organization","id":101122},"header":"Треск и искрение в светильниках в рабочем режиме","text":"DTelekhin test description test description","createDate":1575285285652,"lastEditDate":1575285285656,"ticketState":"Новый","ticketStateId":-1,"serviceId":2836,"viewed":true,"syncMask":"PORTAL_ONLY","location":"152 Скотопрогонная ул. 13","address":"152 Скотопрогонная ул. 13","categories":["Инженерия","Электрооборудование","Внутреннее освещение торгового зала и подсобных помещений"],"category1":"Инженерия","category2":"Электрооборудование","category3":"Внутреннее освещение торгового зала и подсобных помещений","openCommunications":0,"totalCommunications":0,"actions":[]},{"id":149857,"applicant":{"fullName":"Алексей Карчевский","userName":"master","email":"a.karchevski@pflb.ru","location":"142784, г.Москва, Киевское шоссе, 22-й км,\nБП ComCity, домовл.6, стр.1","phone":"8 (000) 123-45-67","mobilePhone":"8 (000) 123-45-67","id":106},"header":"Отсутствие уборки прилегающей территории","text":"rtrtre","createDate":1575284977184,"lastEditDate":1575284977188,"ticketState":"Новый","ticketStateId":-1,"serviceId":2782,"inventoryNumber":"000007","inventoryId":7,"syncMask":"PORTAL_ONLY","location":"Барклая 24","address":"Барклая 24","categories":["Экология","Уборка помещений и прилегающей территории","Уборка прилегающей территории"],"category1":"Экология","category2":"Уборка помещений и прилегающей территории","category3":"Уборка прилегающей территории","openCommunications":0,"totalCommunications":0,"actions":[]},{"id":149856,"applicant":{"fullName":"Алексей Карчевский","userName":"master","email":"a.karchevski@pflb.ru","location":"142784, г.Москва, Киевское шоссе, 22-й км,\nБП ComCity, домовл.6, стр.1","phone":"8 (000) 123-45-67","mobilePhone":"8 (000) 123-45-67","id":106},"header":"Сломана кнопка подъёмника","text":"DTelekhin test description test description test description test description","createDate":1575284853843,"lastEditDate":1575284853848,"ticketState":"Новый","ticketStateId":-1,"serviceId":2926,"viewed":true,"syncMask":"PORTAL_ONLY","files":[{"id":5090,"name":"C:\\Users\\student\\XDesk\\UC01_Create_Incident\\userData.txt"}],"location":"default location","address":"default location","categories":["Технологическое оборудование","Подъемные и передвижные механизмы","Грузовой подъёмник"],"category1":"Технологическое оборудование","category2":"Подъемные и передвижные механизмы","category3":"Грузовой подъёмник","hasAttachments":true,"openCommunications":0,"totalCommunications":0,"actions":[]},{"id":149855,"applicant":{"fullName":"Алексей Карчевский","userName":"master","email":"a.karchevski@pflb.ru","location":"142784, г.Москва, Киевское шоссе, 22-й км,\nБП ComCity, домовл.6, стр.1","phone":"8 (000) 123-45-67","mobilePhone":"8 (000) 123-45-67","id":106},"header":"Подъёмник издаёт посторонние звуки","text":"DTelekhin test description test description test description test description","createDate":1575284107756,"lastEditDate":1575284107817,"ticketState":"Новый","ticketStateId":-1,"serviceId":2930,"syncMask":"PORTAL_ONLY","files":[{"id":5089,"name":"C:\\Users\\student\\XDesk\\UC01_Create_Incident\\userData.txt"}],"location":"Барклая 24","address":"Барклая 24","categories":["Технологическое оборудование","Подъемные и передвижные механизмы","Грузовой подъёмник"],"category1":"Технологическое оборудование","category2":"Подъемные и передвижные механизмы","category3":"Грузовой подъёмник","hasAttachments":true,"openCommunications":0,"totalCommunications":0,"actions":[]},{"id":149854,"applicant":{"fullName":"Алексей Карчевский","userName":"master","email":"a.karchevski@pflb.ru","location":"142784, г.Москва, Киевское шоссе, 22-й км,\nБП ComCity, домовл.6, стр.1","phone":"8 (000) 123-45-67","mobilePhone":"8 (000) 123-45-67","id":106},"header":"Пресс не пресует","text":"Ogdanets text 5","createDate":1575280640741,"lastEditDate":1575280640831,"ticketState":"Новый","ticketStateId":-1,"serviceId":2905,"syncMask":"PORTAL_ONLY","location":"default location","address":"default location","categories":["Технологическое оборудование","Инженерное оборудование","Пресс"],"category1":"Технологическое оборудование","category2":"Инженерное оборудование","category3":"Пресс","openCommunications":0,"totalCommunications":0,"actions":[]},{"id":149853,"applicant":{"fullName":"Алексей Карчевский","userName":"master","email":"a.karchevski@pflb.ru","location":"142784, г.Москва, Киевское шоссе, 22-й км,\nБП ComCity, домовл.6, стр.1","phone":"8 (000) 123-45-67","mobilePhone":"8 (000) 123-45-67","id":106},"header":"It's me","text":"IOS","createDate":1575280459941,"lastEditDate":1575280459945,"ticketState":"Новый","ticketStateId":-1,"serviceId":2948,"inventoryNumber":"000006","inventoryId":6,"syncMask":"PORTAL_ONLY","location":"Барклая 24","address":"Барклая 24","categories":["Технологическое оборудование","Автоматические  ворота и двери","Автоматические двери на входе"],"category1":"Технологическое оборудование","category2":"Автоматические  ворота и двери","category3":"Автоматические двери на входе","openCommunications":0,"totalCommunications":0,"actions":[]},{"id":149852,"applicant":{"fullName":"Алексей Карчевский","userName":"master","email":"a.karchevski@pflb.ru","location":"142784, г.Москва, Киевское шоссе, 22-й км,\nБП ComCity, домовл.6, стр.1","phone":"8 (000) 123-45-67","mobilePhone":"8 (000) 123-45-67","id":106},"header":"Отлов птиц","text":"Some text 666 777","createDate":1575279338274,"lastEditDate":1575279338278,"ticketState":"Новый","ticketStateId":-1,"serviceId":2816,"inventoryNumber":"777","inventoryId":11,"viewed":true,"syncMask":"PORTAL_ONLY","location":"Изумрудная 14","address":"Изумрудная 14","categories":["Экология","Отлов птиц","Отлов птиц"],"category1":"Экология","category2":"Отлов птиц","category3":"Отлов птиц","openCommunications":0,"totalCommunications":0,"actions":[]},{"id":149851,"applicant":{"fullName":"Алексей Карчевский","userName":"master","email":"a.karchevski@pflb.ru","location":"142784, г.Москва, Киевское шоссе, 22-й км,\nБП ComCity, домовл.6, стр.1","phone":"8 (000) 123-45-67","mobilePhone":"8 (000) 123-45-67","id":106},"header":"Отлов птиц","text":"Some text 666 777","createDate":1575278970292,"lastEditDate":1575278970385,"ticketState":"Новый","ticketStateId":-1,"serviceId":2816,"inventoryNumber":"777","inventoryId":11,"viewed":true,"syncMask":"PORTAL_ONLY","files":[{"id":5037,"name":"res.html"}],"location":"Изумрудная 14","address":"Изумрудная 14","categories":["Экология","Отлов птиц","Отлов птиц"],"category1":"Экология","category2":"Отлов птиц","category3":"Отлов птиц","hasAttachments":true,"openCommunications":0,"totalCommunications":0,"actions":[]},{"id":149850,"applicant":{"fullName":"Алексей Карчевский","userName":"master","email":"a.karchevski@pflb.ru","location":"142784, г.Москва, Киевское шоссе, 22-й км,\nБП ComCity, домовл.6, стр.1","phone":"8 (000) 123-45-67","mobilePhone":"8 (000) 123-45-67","id":106},"director":{"fullName":"Васильев Павел1","userName":"director_1","email":"director@mail.com","location":"location","address":"152 Скотопрогонная ул. 13","phone":"+79778334486","mobilePhone":"8 (000) 123-45-67","workPhone":"+79778334486","organization":"organization","id":101122},"header":"Не работает счетчик монет","text":"Ogdanets text 5","createDate":1575278597560,"lastEditDate":1575278597564,"ticketState":"Новый","ticketStateId":-1,"serviceId":2903,"syncMask":"PORTAL_ONLY","location":"152 Скотопрогонная ул. 13","address":"152 Скотопрогонная ул. 13","categories":["Технологическое оборудование","Банковское оборудование","Счётчик монет"],"category1":"Технологическое оборудование","category2":"Банковское оборудование","category3":"Счётчик монет","openCommunications":0,"totalCommunications":0,"actions":[]}],"last":false,"totalElements":411,"totalPages":42,"size":10,"number":0,"sort":[{"direction":"DESC","property":"id","ignoreCase":false,"nullHandling":"NATIVE","ascending":false,"descending":true}],"numberOfElements":10,"first":true}