{"content":[{"id":149651,"applicant":{"fullName":"Алексей Карчевский","userName":"master","email":"a.karchevski@pflb.ru","location":"142784, г.Москва, Киевское шоссе, 22-й км,\nБП ComCity, домовл.6, стр.1","phone":"8 (000) 123-45-67","mobilePhone":"8 (000) 123-45-67","id":106},"header":"Не крутится транспортёрная лента","text":"Agalarov.A.1010719882","createDate":1574949839061,"lastEditDate":1574949839104,"ticketState":"Новый","ticketStateId":-1,"serviceId":2947,"inventoryNumber":"000008","inventoryId":8,"syncMask":"PORTAL_ONLY","files":[{"id":4387,"name":"test_text_file.txt"}],"location":"Барклая 24","address":"Барклая 24","categories":["Технологическое оборудование","Автоматические  ворота и двери","Автоматические двери на входе"],"category1":"Технологическое оборудование","category2":"Автоматические  ворота и двери","category3":"Автоматические двери на входе","hasAttachments":true,"openCommunications":0,"totalCommunications":0,"actions":[]},{"id":149650,"applicant":{"fullName":"Алексей Карчевский","userName":"master","email":"a.karchevski@pflb.ru","location":"142784, г.Москва, Киевское шоссе, 22-й км,\nБП ComCity, домовл.6, стр.1","phone":"8 (000) 123-45-67","mobilePhone":"8 (000) 123-45-67","id":106},"header":"Не крутится транспортёрная лента","text":"Agalarov.A.1125482801","createDate":1574949832329,"lastEditDate":1574949832334,"ticketState":"Новый","ticketStateId":-1,"serviceId":2949,"syncMask":"PORTAL_ONLY","location":"256 Бинарная ул. 16","address":"256 Бинарная ул. 16","categories":["Технологическое оборудование","Автоматические  ворота и двери","Автоматические двери на входе"],"category1":"Технологическое оборудование","category2":"Автоматические  ворота и двери","category3":"Автоматические двери на входе","openCommunications":0,"totalCommunications":0,"actions":[]},{"id":149649,"applicant":{"fullName":"Алексей Карчевский","userName":"master","email":"a.karchevski@pflb.ru","location":"142784, г.Москва, Киевское шоссе, 22-й км,\nБП ComCity, домовл.6, стр.1","phone":"8 (000) 123-45-67","mobilePhone":"8 (000) 123-45-67","id":106},"director":{"fullName":"Васильев Павел1","userName":"director_1","email":"director@mail.com","location":"location","address":"152 Скотопрогонная ул. 13","phone":"+79778334486","mobilePhone":"8 (000) 123-45-67","workPhone":"+79778334486","organization":"organization","id":101122},"header":"Не крутится транспортёрная лента","text":"Agalarov.A.2044944425","createDate":1574949825346,"lastEditDate":1574949825351,"ticketState":"Новый","ticketStateId":-1,"serviceId":2821,"syncMask":"PORTAL_ONLY","location":"152 Скотопрогонная ул. 13","address":"152 Скотопрогонная ул. 13","categories":["Инженерия","Измерительные приборы","Электросчетчик"],"category1":"Инженерия","category2":"Измерительные приборы","category3":"Электросчетчик","openCommunications":0,"totalCommunications":0,"actions":[]},{"id":149648,"applicant":{"fullName":"Алексей Карчевский","userName":"master","email":"a.karchevski@pflb.ru","location":"142784, г.Москва, Киевское шоссе, 22-й км,\nБП ComCity, домовл.6, стр.1","phone":"8 (000) 123-45-67","mobilePhone":"8 (000) 123-45-67","id":106},"header":"Не крутится транспортёрная лента","text":"Agalarov.A.1800520417","createDate":1574949823344,"lastEditDate":1574949823350,"ticketState":"Новый","ticketStateId":-1,"serviceId":2841,"syncMask":"PORTAL_ONLY","location":"default location","address":"default location","categories":["Инженерия","Электрооборудование","Обеспечение электроэнергией от  генераторов"],"category1":"Инженерия","category2":"Электрооборудование","category3":"Обеспечение электроэнергией от  генераторов","openCommunications":0,"totalCommunications":0,"actions":[]},{"id":149647,"applicant":{"fullName":"Алексей Карчевский","userName":"master","email":"a.karchevski@pflb.ru","location":"142784, г.Москва, Киевское шоссе, 22-й км,\nБП ComCity, домовл.6, стр.1","phone":"8 (000) 123-45-67","mobilePhone":"8 (000) 123-45-67","id":106},"header":"Не крутится транспортёрная лента","text":"Agalarov.A.2008343063","createDate":1574949817920,"lastEditDate":1574949817925,"ticketState":"Новый","ticketStateId":-1,"serviceId":2927,"syncMask":"PORTAL_ONLY","location":"default location","address":"default location","categories":["Технологическое оборудование","Подъемные и передвижные механизмы","Пассажирские лифты"],"category1":"Технологическое оборудование","category2":"Подъемные и передвижные механизмы","category3":"Пассажирские лифты","openCommunications":0,"totalCommunications":0,"actions":[]},{"id":149645,"applicant":{"fullName":"Алексей Карчевский","userName":"master","email":"a.karchevski@pflb.ru","location":"142784, г.Москва, Киевское шоссе, 22-й км,\nБП ComCity, домовл.6, стр.1","phone":"8 (000) 123-45-67","mobilePhone":"8 (000) 123-45-67","id":106},"contractor":{"id":9,"name":"2-Ремонт","organization":"Холодильное оборудование","company":"YYY","active":true},"header":"Не крутится транспортёрная лента","text":"Agalarov.A.1489661550","createDate":1574948054013,"lastEditDate":1574948054019,"ticketState":"Выполняется","ticketStateId":1,"serviceId":2923,"viewed":true,"syncMask":"PORTAL_ONLY","location":"default location","address":"default location","taskId":149645,"taskState":"Выполняется","taskStateId":1,"categories":["Технологическое оборудование","Подъемные и передвижные механизмы","Пассажирские лифты"],"category1":"Технологическое оборудование","category2":"Подъемные и передвижные механизмы","category3":"Пассажирские лифты","canBeCanceled":false,"openCommunications":0,"totalCommunications":0,"actions":["assignContractor","solveTicket","cancelTicket","cancelTask","inventoryNumberChange","slaDateChange","specialistDateChange","comment"]},{"id":149642,"applicant":{"fullName":"Алексей Карчевский","userName":"master","email":"a.karchevski@pflb.ru","location":"142784, г.Москва, Киевское шоссе, 22-й км,\nБП ComCity, домовл.6, стр.1","phone":"8 (000) 123-45-67","mobilePhone":"8 (000) 123-45-67","id":106},"contractor":{"id":9,"name":"2-Ремонт","organization":"Холодильное оборудование","company":"YYY","active":true},"header":"Не крутится транспортёрная лента","text":"Agalarov.A.1110627039","createDate":1574948034223,"lastEditDate":1574948034228,"ticketState":"Выполняется","ticketStateId":1,"serviceId":2992,"syncMask":"PORTAL_ONLY","location":"256 Бинарная ул. 16","address":"256 Бинарная ул. 16","taskId":149642,"taskState":"Выполняется","taskStateId":1,"categories":["Технологическое оборудование","Холодильное оборудование","Ларь Бонета"],"category1":"Технологическое оборудование","category2":"Холодильное оборудование","category3":"Ларь Бонета","canBeCanceled":false,"openCommunications":0,"totalCommunications":0,"actions":["assignContractor","solveTicket","cancelTicket","cancelTask","inventoryNumberChange","slaDateChange","specialistDateChange","comment"]},{"id":149636,"applicant":{"fullName":"Алексей Карчевский","userName":"master","email":"a.karchevski@pflb.ru","location":"142784, г.Москва, Киевское шоссе, 22-й км,\nБП ComCity, домовл.6, стр.1","phone":"8 (000) 123-45-67","mobilePhone":"8 (000) 123-45-67","id":106},"contractor":{"id":9,"name":"2-Ремонт","organization":"Холодильное оборудование","company":"YYY","active":true},"header":"Не крутится транспортёрная лента","text":"Agalarov.A.2061810716","createDate":1574946695224,"lastEditDate":1574946695246,"ticketState":"Выполняется","ticketStateId":1,"serviceId":2885,"syncMask":"PORTAL_ONLY","location":"default location","address":"default location","taskId":149636,"taskState":"Выполняется","taskStateId":1,"categories":["Технологическое оборудование","Кассовый стол и гидаж","Кассовый стол (педаль, лента транспортера)"],"category1":"Технологическое оборудование","category2":"Кассовый стол и гидаж","category3":"Кассовый стол (педаль, лента транспортера)","canBeCanceled":false,"openCommunications":0,"totalCommunications":0,"actions":["assignContractor","solveTicket","cancelTicket","cancelTask","inventoryNumberChange","slaDateChange","specialistDateChange","comment"]},{"id":149634,"applicant":{"fullName":"Алексей Карчевский","userName":"master","email":"a.karchevski@pflb.ru","location":"142784, г.Москва, Киевское шоссе, 22-й км,\nБП ComCity, домовл.6, стр.1","phone":"8 (000) 123-45-67","mobilePhone":"8 (000) 123-45-67","id":106},"contractor":{"id":9,"name":"2-Ремонт","organization":"Холодильное оборудование","company":"YYY","active":true},"header":"Не крутится транспортёрная лента","text":"Agalarov.A.1996031758","createDate":1574946681980,"lastEditDate":1574946681985,"ticketState":"Выполняется","ticketStateId":1,"serviceId":2815,"inventoryNumber":"000010","inventoryId":10,"syncMask":"PORTAL_ONLY","location":"Изумрудная 14","address":"Изумрудная 14","taskId":149634,"taskState":"Выполняется","taskStateId":1,"categories":["Экология","Замена ковриков","Замена ковриков"],"category1":"Экология","category2":"Замена ковриков","category3":"Замена ковриков","canBeCanceled":false,"hasAttachments":true,"openCommunications":0,"totalCommunications":0,"actions":["assignContractor","solveTicket","cancelTicket","cancelTask","inventoryNumberChange","slaDateChange","specialistDateChange","comment"]},{"id":149633,"applicant":{"fullName":"Алексей Карчевский","userName":"master","email":"a.karchevski@pflb.ru","location":"142784, г.Москва, Киевское шоссе, 22-й км,\nБП ComCity, домовл.6, стр.1","phone":"8 (000) 123-45-67","mobilePhone":"8 (000) 123-45-67","id":106},"contractor":{"id":9,"name":"2-Ремонт","organization":"Холодильное оборудование","company":"YYY","active":true},"header":"Не крутится транспортёрная лента","text":"Agalarov.A.1674384675","createDate":1574946675154,"lastEditDate":1574946675159,"ticketState":"Выполняется","ticketStateId":1,"serviceId":2881,"syncMask":"PORTAL_ONLY","location":"256 Бинарная ул. 16","address":"256 Бинарная ул. 16","taskId":149633,"taskState":"Выполняется","taskStateId":1,"categories":["Технологическое оборудование","Кассовый стол и гидаж","Кассовый стол (педаль, лента транспортера)"],"category1":"Технологическое оборудование","category2":"Кассовый стол и гидаж","category3":"Кассовый стол (педаль, лента транспортера)","canBeCanceled":false,"openCommunications":0,"totalCommunications":0,"actions":["assignContractor","solveTicket","cancelTicket","cancelTask","inventoryNumberChange","slaDateChange","specialistDateChange","comment"]}],"last":false,"totalElements":431,"totalPages":44,"size":10,"number":0,"sort":[{"direction":"DESC","property":"id","ignoreCase":false,"nullHandling":"NATIVE","ascending":false,"descending":true}],"numberOfElements":10,"first":true}